%YAML 1.1
%TAG !u! tag:unity3d.com,2011:
--- !u!1001 &2812248162966784276
PrefabInstance:
  m_ObjectHideFlags: 0
  serializedVersion: 2
  m_Modification:
    m_TransformParent: {fileID: 0}
    m_Modifications:
    - target: {fileID: 1668802535624093873, guid: 461e23c5d191ef7429243d914a042dd7,
        type: 3}
      propertyPath: m_AnchorMin.y
      value: 0
      objectReference: {fileID: 0}
    - target: {fileID: 1668802535624093873, guid: 461e23c5d191ef7429243d914a042dd7,
        type: 3}
      propertyPath: m_AnchorMax.y
      value: 0
      objectReference: {fileID: 0}
    - target: {fileID: 1668802535624093873, guid: 461e23c5d191ef7429243d914a042dd7,
        type: 3}
      propertyPath: m_AnchoredPosition.x
      value: 0
      objectReference: {fileID: 0}
    - target: {fileID: 1668802535624093873, guid: 461e23c5d191ef7429243d914a042dd7,
        type: 3}
      propertyPath: m_SizeDelta.x
      value: 0
      objectReference: {fileID: 0}
    - target: {fileID: 1668802535624093873, guid: 461e23c5d191ef7429243d914a042dd7,
        type: 3}
      propertyPath: m_AnchoredPosition.y
      value: 0
      objectReference: {fileID: 0}
    - target: {fileID: 1668802535624093873, guid: 461e23c5d191ef7429243d914a042dd7,
        type: 3}
      propertyPath: m_SizeDelta.y
      value: 0
      objectReference: {fileID: 0}
    - target: {fileID: 1668802535624093874, guid: 461e23c5d191ef7429243d914a042dd7,
        type: 3}
      propertyPath: ThemeIdSerializedGuid.Array.data[0]
      value: 88
      objectReference: {fileID: 0}
    - target: {fileID: 1668802535624093874, guid: 461e23c5d191ef7429243d914a042dd7,
        type: 3}
      propertyPath: ThemeIdSerializedGuid.Array.data[1]
      value: 190
      objectReference: {fileID: 0}
    - target: {fileID: 1668802535624093874, guid: 461e23c5d191ef7429243d914a042dd7,
        type: 3}
      propertyPath: ThemeIdSerializedGuid.Array.data[2]
      value: 136
      objectReference: {fileID: 0}
    - target: {fileID: 1668802535624093874, guid: 461e23c5d191ef7429243d914a042dd7,
        type: 3}
      propertyPath: ThemeIdSerializedGuid.Array.data[3]
      value: 238
      objectReference: {fileID: 0}
    - target: {fileID: 1668802535624093874, guid: 461e23c5d191ef7429243d914a042dd7,
        type: 3}
      propertyPath: ThemeIdSerializedGuid.Array.data[4]
      value: 228
      objectReference: {fileID: 0}
    - target: {fileID: 1668802535624093874, guid: 461e23c5d191ef7429243d914a042dd7,
        type: 3}
      propertyPath: ThemeIdSerializedGuid.Array.data[5]
      value: 164
      objectReference: {fileID: 0}
    - target: {fileID: 1668802535624093874, guid: 461e23c5d191ef7429243d914a042dd7,
        type: 3}
      propertyPath: ThemeIdSerializedGuid.Array.data[6]
      value: 75
      objectReference: {fileID: 0}
    - target: {fileID: 1668802535624093874, guid: 461e23c5d191ef7429243d914a042dd7,
        type: 3}
      propertyPath: ThemeIdSerializedGuid.Array.data[7]
      value: 77
      objectReference: {fileID: 0}
    - target: {fileID: 1668802535624093874, guid: 461e23c5d191ef7429243d914a042dd7,
        type: 3}
      propertyPath: ThemeIdSerializedGuid.Array.data[8]
      value: 146
      objectReference: {fileID: 0}
    - target: {fileID: 1668802535624093874, guid: 461e23c5d191ef7429243d914a042dd7,
        type: 3}
      propertyPath: ThemeIdSerializedGuid.Array.data[9]
      value: 25
      objectReference: {fileID: 0}
    - target: {fileID: 1668802535624093874, guid: 461e23c5d191ef7429243d914a042dd7,
        type: 3}
      propertyPath: ThemeIdSerializedGuid.Array.data[10]
      value: 230
      objectReference: {fileID: 0}
    - target: {fileID: 1668802535624093874, guid: 461e23c5d191ef7429243d914a042dd7,
        type: 3}
      propertyPath: ThemeIdSerializedGuid.Array.data[11]
      value: 219
      objectReference: {fileID: 0}
    - target: {fileID: 1668802535624093874, guid: 461e23c5d191ef7429243d914a042dd7,
        type: 3}
      propertyPath: ThemeIdSerializedGuid.Array.data[12]
      value: 93
      objectReference: {fileID: 0}
    - target: {fileID: 1668802535624093874, guid: 461e23c5d191ef7429243d914a042dd7,
        type: 3}
      propertyPath: ThemeIdSerializedGuid.Array.data[13]
      value: 225
      objectReference: {fileID: 0}
    - target: {fileID: 1668802535624093874, guid: 461e23c5d191ef7429243d914a042dd7,
        type: 3}
      propertyPath: ThemeIdSerializedGuid.Array.data[14]
      value: 239
      objectReference: {fileID: 0}
    - target: {fileID: 1668802535624093874, guid: 461e23c5d191ef7429243d914a042dd7,
        type: 3}
      propertyPath: ThemeIdSerializedGuid.Array.data[15]
      value: 190
      objectReference: {fileID: 0}
    - target: {fileID: 1668802535624093874, guid: 461e23c5d191ef7429243d914a042dd7,
        type: 3}
      propertyPath: PropertyIdSerializedGuid.Array.data[0]
      value: 223
      objectReference: {fileID: 0}
    - target: {fileID: 1668802535624093874, guid: 461e23c5d191ef7429243d914a042dd7,
        type: 3}
      propertyPath: PropertyIdSerializedGuid.Array.data[1]
      value: 177
      objectReference: {fileID: 0}
    - target: {fileID: 1668802535624093874, guid: 461e23c5d191ef7429243d914a042dd7,
        type: 3}
      propertyPath: PropertyIdSerializedGuid.Array.data[2]
      value: 101
      objectReference: {fileID: 0}
    - target: {fileID: 1668802535624093874, guid: 461e23c5d191ef7429243d914a042dd7,
        type: 3}
      propertyPath: PropertyIdSerializedGuid.Array.data[3]
      value: 134
      objectReference: {fileID: 0}
    - target: {fileID: 1668802535624093874, guid: 461e23c5d191ef7429243d914a042dd7,
        type: 3}
      propertyPath: PropertyIdSerializedGuid.Array.data[4]
      value: 127
      objectReference: {fileID: 0}
    - target: {fileID: 1668802535624093874, guid: 461e23c5d191ef7429243d914a042dd7,
        type: 3}
      propertyPath: PropertyIdSerializedGuid.Array.data[5]
      value: 36
      objectReference: {fileID: 0}
    - target: {fileID: 1668802535624093874, guid: 461e23c5d191ef7429243d914a042dd7,
        type: 3}
      propertyPath: PropertyIdSerializedGuid.Array.data[6]
      value: 176
      objectReference: {fileID: 0}
    - target: {fileID: 1668802535624093874, guid: 461e23c5d191ef7429243d914a042dd7,
        type: 3}
      propertyPath: PropertyIdSerializedGuid.Array.data[8]
      value: 172
      objectReference: {fileID: 0}
    - target: {fileID: 1668802535624093874, guid: 461e23c5d191ef7429243d914a042dd7,
        type: 3}
      propertyPath: PropertyIdSerializedGuid.Array.data[9]
      value: 45
      objectReference: {fileID: 0}
    - target: {fileID: 1668802535624093874, guid: 461e23c5d191ef7429243d914a042dd7,
        type: 3}
      propertyPath: PropertyIdSerializedGuid.Array.data[10]
      value: 38
      objectReference: {fileID: 0}
    - target: {fileID: 1668802535624093874, guid: 461e23c5d191ef7429243d914a042dd7,
        type: 3}
      propertyPath: PropertyIdSerializedGuid.Array.data[11]
      value: 51
      objectReference: {fileID: 0}
    - target: {fileID: 1668802535624093874, guid: 461e23c5d191ef7429243d914a042dd7,
        type: 3}
      propertyPath: PropertyIdSerializedGuid.Array.data[12]
      value: 94
      objectReference: {fileID: 0}
    - target: {fileID: 1668802535624093874, guid: 461e23c5d191ef7429243d914a042dd7,
        type: 3}
      propertyPath: PropertyIdSerializedGuid.Array.data[13]
      value: 41
      objectReference: {fileID: 0}
    - target: {fileID: 1668802535624093874, guid: 461e23c5d191ef7429243d914a042dd7,
        type: 3}
      propertyPath: PropertyIdSerializedGuid.Array.data[14]
      value: 242
      objectReference: {fileID: 0}
    - target: {fileID: 1668802535624093874, guid: 461e23c5d191ef7429243d914a042dd7,
        type: 3}
      propertyPath: PropertyIdSerializedGuid.Array.data[15]
      value: 161
      objectReference: {fileID: 0}
    - target: {fileID: 1668802535624093874, guid: 461e23c5d191ef7429243d914a042dd7,
        type: 3}
      propertyPath: PropertyIdSerializedGuid.Array.data[7]
      value: 77
      objectReference: {fileID: 0}
    - target: {fileID: 1668802535624093875, guid: 461e23c5d191ef7429243d914a042dd7,
        type: 3}
      propertyPath: m_text
      value: Apply
      objectReference: {fileID: 0}
    - target: {fileID: 1668802535927481425, guid: 461e23c5d191ef7429243d914a042dd7,
        type: 3}
      propertyPath: PropertyIdSerializedGuid.Array.data[0]
      value: 228
      objectReference: {fileID: 0}
    - target: {fileID: 1668802535927481425, guid: 461e23c5d191ef7429243d914a042dd7,
        type: 3}
      propertyPath: PropertyIdSerializedGuid.Array.data[1]
      value: 177
      objectReference: {fileID: 0}
    - target: {fileID: 1668802535927481425, guid: 461e23c5d191ef7429243d914a042dd7,
        type: 3}
      propertyPath: PropertyIdSerializedGuid.Array.data[2]
      value: 240
      objectReference: {fileID: 0}
    - target: {fileID: 1668802535927481425, guid: 461e23c5d191ef7429243d914a042dd7,
        type: 3}
      propertyPath: PropertyIdSerializedGuid.Array.data[3]
      value: 193
      objectReference: {fileID: 0}
    - target: {fileID: 1668802535927481425, guid: 461e23c5d191ef7429243d914a042dd7,
        type: 3}
      propertyPath: PropertyIdSerializedGuid.Array.data[4]
      value: 31
      objectReference: {fileID: 0}
    - target: {fileID: 1668802535927481425, guid: 461e23c5d191ef7429243d914a042dd7,
        type: 3}
      propertyPath: PropertyIdSerializedGuid.Array.data[5]
      value: 241
      objectReference: {fileID: 0}
    - target: {fileID: 1668802535927481425, guid: 461e23c5d191ef7429243d914a042dd7,
        type: 3}
      propertyPath: PropertyIdSerializedGuid.Array.data[6]
      value: 236
      objectReference: {fileID: 0}
    - target: {fileID: 1668802535927481425, guid: 461e23c5d191ef7429243d914a042dd7,
        type: 3}
      propertyPath: PropertyIdSerializedGuid.Array.data[7]
      value: 65
      objectReference: {fileID: 0}
    - target: {fileID: 1668802535927481425, guid: 461e23c5d191ef7429243d914a042dd7,
        type: 3}
      propertyPath: PropertyIdSerializedGuid.Array.data[8]
      value: 146
      objectReference: {fileID: 0}
    - target: {fileID: 1668802535927481425, guid: 461e23c5d191ef7429243d914a042dd7,
        type: 3}
      propertyPath: PropertyIdSerializedGuid.Array.data[9]
      value: 154
      objectReference: {fileID: 0}
    - target: {fileID: 1668802535927481425, guid: 461e23c5d191ef7429243d914a042dd7,
        type: 3}
      propertyPath: PropertyIdSerializedGuid.Array.data[10]
      value: 127
      objectReference: {fileID: 0}
    - target: {fileID: 1668802535927481425, guid: 461e23c5d191ef7429243d914a042dd7,
        type: 3}
      propertyPath: PropertyIdSerializedGuid.Array.data[11]
      value: 107
      objectReference: {fileID: 0}
    - target: {fileID: 1668802535927481425, guid: 461e23c5d191ef7429243d914a042dd7,
        type: 3}
      propertyPath: PropertyIdSerializedGuid.Array.data[12]
      value: 83
      objectReference: {fileID: 0}
    - target: {fileID: 1668802535927481425, guid: 461e23c5d191ef7429243d914a042dd7,
        type: 3}
      propertyPath: PropertyIdSerializedGuid.Array.data[13]
      value: 254
      objectReference: {fileID: 0}
    - target: {fileID: 1668802535927481425, guid: 461e23c5d191ef7429243d914a042dd7,
        type: 3}
      propertyPath: PropertyIdSerializedGuid.Array.data[14]
      value: 104
      objectReference: {fileID: 0}
    - target: {fileID: 1668802535927481425, guid: 461e23c5d191ef7429243d914a042dd7,
        type: 3}
      propertyPath: PropertyIdSerializedGuid.Array.data[15]
      value: 111
      objectReference: {fileID: 0}
    - target: {fileID: 1668802535927481425, guid: 461e23c5d191ef7429243d914a042dd7,
        type: 3}
      propertyPath: ThemeIdSerializedGuid.Array.data[0]
      value: 171
      objectReference: {fileID: 0}
    - target: {fileID: 1668802535927481425, guid: 461e23c5d191ef7429243d914a042dd7,
        type: 3}
      propertyPath: ThemeIdSerializedGuid.Array.data[1]
      value: 226
      objectReference: {fileID: 0}
    - target: {fileID: 1668802535927481425, guid: 461e23c5d191ef7429243d914a042dd7,
        type: 3}
      propertyPath: ThemeIdSerializedGuid.Array.data[2]
      value: 126
      objectReference: {fileID: 0}
    - target: {fileID: 1668802535927481425, guid: 461e23c5d191ef7429243d914a042dd7,
        type: 3}
      propertyPath: ThemeIdSerializedGuid.Array.data[3]
      value: 195
      objectReference: {fileID: 0}
    - target: {fileID: 1668802535927481425, guid: 461e23c5d191ef7429243d914a042dd7,
        type: 3}
      propertyPath: ThemeIdSerializedGuid.Array.data[4]
      value: 130
      objectReference: {fileID: 0}
    - target: {fileID: 1668802535927481425, guid: 461e23c5d191ef7429243d914a042dd7,
        type: 3}
      propertyPath: ThemeIdSerializedGuid.Array.data[5]
      value: 32
      objectReference: {fileID: 0}
    - target: {fileID: 1668802535927481425, guid: 461e23c5d191ef7429243d914a042dd7,
        type: 3}
      propertyPath: ThemeIdSerializedGuid.Array.data[6]
      value: 30
      objectReference: {fileID: 0}
    - target: {fileID: 1668802535927481425, guid: 461e23c5d191ef7429243d914a042dd7,
        type: 3}
      propertyPath: ThemeIdSerializedGuid.Array.data[7]
      value: 79
      objectReference: {fileID: 0}
    - target: {fileID: 1668802535927481425, guid: 461e23c5d191ef7429243d914a042dd7,
        type: 3}
      propertyPath: ThemeIdSerializedGuid.Array.data[8]
      value: 152
      objectReference: {fileID: 0}
    - target: {fileID: 1668802535927481425, guid: 461e23c5d191ef7429243d914a042dd7,
        type: 3}
      propertyPath: ThemeIdSerializedGuid.Array.data[9]
      value: 165
      objectReference: {fileID: 0}
    - target: {fileID: 1668802535927481425, guid: 461e23c5d191ef7429243d914a042dd7,
        type: 3}
      propertyPath: ThemeIdSerializedGuid.Array.data[10]
      value: 115
      objectReference: {fileID: 0}
    - target: {fileID: 1668802535927481425, guid: 461e23c5d191ef7429243d914a042dd7,
        type: 3}
      propertyPath: ThemeIdSerializedGuid.Array.data[11]
      value: 167
      objectReference: {fileID: 0}
    - target: {fileID: 1668802535927481425, guid: 461e23c5d191ef7429243d914a042dd7,
        type: 3}
      propertyPath: ThemeIdSerializedGuid.Array.data[12]
      value: 239
      objectReference: {fileID: 0}
    - target: {fileID: 1668802535927481425, guid: 461e23c5d191ef7429243d914a042dd7,
        type: 3}
      propertyPath: ThemeIdSerializedGuid.Array.data[13]
      value: 203
      objectReference: {fileID: 0}
    - target: {fileID: 1668802535927481425, guid: 461e23c5d191ef7429243d914a042dd7,
        type: 3}
      propertyPath: ThemeIdSerializedGuid.Array.data[14]
      value: 71
      objectReference: {fileID: 0}
    - target: {fileID: 1668802535927481425, guid: 461e23c5d191ef7429243d914a042dd7,
        type: 3}
      propertyPath: ThemeIdSerializedGuid.Array.data[15]
      value: 53
      objectReference: {fileID: 0}
    - target: {fileID: 1668802535927481426, guid: 461e23c5d191ef7429243d914a042dd7,
        type: 3}
      propertyPath: m_Color.r
      value: 0
      objectReference: {fileID: 0}
    - target: {fileID: 1668802535927481426, guid: 461e23c5d191ef7429243d914a042dd7,
        type: 3}
      propertyPath: m_Color.g
      value: 0.5019608
      objectReference: {fileID: 0}
    - target: {fileID: 1668802535927481426, guid: 461e23c5d191ef7429243d914a042dd7,
        type: 3}
      propertyPath: m_Color.b
      value: 0.0627451
      objectReference: {fileID: 0}
    - target: {fileID: 1668802535988074797, guid: 461e23c5d191ef7429243d914a042dd7,
        type: 3}
      propertyPath: m_Name
      value: ButtonApply
      objectReference: {fileID: 0}
    - target: {fileID: 1668802535988074798, guid: 461e23c5d191ef7429243d914a042dd7,
        type: 3}
      propertyPath: m_LocalPosition.x
      value: 0
      objectReference: {fileID: 0}
    - target: {fileID: 1668802535988074798, guid: 461e23c5d191ef7429243d914a042dd7,
        type: 3}
      propertyPath: m_LocalPosition.y
      value: 0
      objectReference: {fileID: 0}
    - target: {fileID: 1668802535988074798, guid: 461e23c5d191ef7429243d914a042dd7,
        type: 3}
      propertyPath: m_LocalPosition.z
      value: 0
      objectReference: {fileID: 0}
    - target: {fileID: 1668802535988074798, guid: 461e23c5d191ef7429243d914a042dd7,
        type: 3}
      propertyPath: m_RootOrder
      value: 0
      objectReference: {fileID: 0}
    - target: {fileID: 1668802535988074798, guid: 461e23c5d191ef7429243d914a042dd7,
        type: 3}
      propertyPath: m_LocalEulerAnglesHint.x
      value: 0
      objectReference: {fileID: 0}
    - target: {fileID: 1668802535988074798, guid: 461e23c5d191ef7429243d914a042dd7,
        type: 3}
      propertyPath: m_LocalEulerAnglesHint.y
      value: 0
      objectReference: {fileID: 0}
    - target: {fileID: 1668802535988074798, guid: 461e23c5d191ef7429243d914a042dd7,
        type: 3}
      propertyPath: m_LocalEulerAnglesHint.z
      value: 0
      objectReference: {fileID: 0}
    - target: {fileID: 1668802535988074798, guid: 461e23c5d191ef7429243d914a042dd7,
        type: 3}
      propertyPath: m_AnchoredPosition.x
      value: 0
      objectReference: {fileID: 0}
    - target: {fileID: 1668802535988074798, guid: 461e23c5d191ef7429243d914a042dd7,
        type: 3}
      propertyPath: m_AnchoredPosition.y
      value: 0
      objectReference: {fileID: 0}
    - target: {fileID: 1668802535988074798, guid: 461e23c5d191ef7429243d914a042dd7,
        type: 3}
      propertyPath: m_SizeDelta.x
      value: 800
      objectReference: {fileID: 0}
    - target: {fileID: 1668802537024229746, guid: 461e23c5d191ef7429243d914a042dd7,
        type: 3}
      propertyPath: PropertyIdSerializedGuid.Array.data[0]
      value: 57
      objectReference: {fileID: 0}
    - target: {fileID: 1668802537024229746, guid: 461e23c5d191ef7429243d914a042dd7,
        type: 3}
      propertyPath: PropertyIdSerializedGuid.Array.data[1]
      value: 221
      objectReference: {fileID: 0}
    - target: {fileID: 1668802537024229746, guid: 461e23c5d191ef7429243d914a042dd7,
        type: 3}
      propertyPath: PropertyIdSerializedGuid.Array.data[2]
      value: 250
      objectReference: {fileID: 0}
    - target: {fileID: 1668802537024229746, guid: 461e23c5d191ef7429243d914a042dd7,
        type: 3}
      propertyPath: PropertyIdSerializedGuid.Array.data[3]
      value: 13
      objectReference: {fileID: 0}
    - target: {fileID: 1668802537024229746, guid: 461e23c5d191ef7429243d914a042dd7,
        type: 3}
      propertyPath: PropertyIdSerializedGuid.Array.data[4]
      value: 80
      objectReference: {fileID: 0}
    - target: {fileID: 1668802537024229746, guid: 461e23c5d191ef7429243d914a042dd7,
        type: 3}
      propertyPath: PropertyIdSerializedGuid.Array.data[5]
      value: 129
      objectReference: {fileID: 0}
    - target: {fileID: 1668802537024229746, guid: 461e23c5d191ef7429243d914a042dd7,
        type: 3}
      propertyPath: PropertyIdSerializedGuid.Array.data[6]
      value: 234
      objectReference: {fileID: 0}
    - target: {fileID: 1668802537024229746, guid: 461e23c5d191ef7429243d914a042dd7,
        type: 3}
      propertyPath: PropertyIdSerializedGuid.Array.data[7]
      value: 76
      objectReference: {fileID: 0}
    - target: {fileID: 1668802537024229746, guid: 461e23c5d191ef7429243d914a042dd7,
        type: 3}
      propertyPath: PropertyIdSerializedGuid.Array.data[8]
      value: 179
      objectReference: {fileID: 0}
    - target: {fileID: 1668802537024229746, guid: 461e23c5d191ef7429243d914a042dd7,
        type: 3}
      propertyPath: PropertyIdSerializedGuid.Array.data[9]
      value: 115
      objectReference: {fileID: 0}
    - target: {fileID: 1668802537024229746, guid: 461e23c5d191ef7429243d914a042dd7,
        type: 3}
      propertyPath: PropertyIdSerializedGuid.Array.data[10]
      value: 102
      objectReference: {fileID: 0}
    - target: {fileID: 1668802537024229746, guid: 461e23c5d191ef7429243d914a042dd7,
        type: 3}
      propertyPath: PropertyIdSerializedGuid.Array.data[11]
      value: 82
      objectReference: {fileID: 0}
    - target: {fileID: 1668802537024229746, guid: 461e23c5d191ef7429243d914a042dd7,
        type: 3}
      propertyPath: PropertyIdSerializedGuid.Array.data[12]
      value: 124
      objectReference: {fileID: 0}
    - target: {fileID: 1668802537024229746, guid: 461e23c5d191ef7429243d914a042dd7,
        type: 3}
      propertyPath: PropertyIdSerializedGuid.Array.data[13]
      value: 93
      objectReference: {fileID: 0}
    - target: {fileID: 1668802537024229746, guid: 461e23c5d191ef7429243d914a042dd7,
        type: 3}
      propertyPath: PropertyIdSerializedGuid.Array.data[14]
      value: 61
      objectReference: {fileID: 0}
    - target: {fileID: 1668802537024229746, guid: 461e23c5d191ef7429243d914a042dd7,
        type: 3}
      propertyPath: PropertyIdSerializedGuid.Array.data[15]
      value: 227
      objectReference: {fileID: 0}
    - target: {fileID: 1668802537024229746, guid: 461e23c5d191ef7429243d914a042dd7,
        type: 3}
      propertyPath: ThemeIdSerializedGuid.Array.data[0]
      value: 171
      objectReference: {fileID: 0}
    - target: {fileID: 1668802537024229746, guid: 461e23c5d191ef7429243d914a042dd7,
        type: 3}
      propertyPath: ThemeIdSerializedGuid.Array.data[1]
      value: 226
      objectReference: {fileID: 0}
    - target: {fileID: 1668802537024229746, guid: 461e23c5d191ef7429243d914a042dd7,
        type: 3}
      propertyPath: ThemeIdSerializedGuid.Array.data[2]
      value: 126
      objectReference: {fileID: 0}
    - target: {fileID: 1668802537024229746, guid: 461e23c5d191ef7429243d914a042dd7,
        type: 3}
      propertyPath: ThemeIdSerializedGuid.Array.data[3]
      value: 195
      objectReference: {fileID: 0}
    - target: {fileID: 1668802537024229746, guid: 461e23c5d191ef7429243d914a042dd7,
        type: 3}
      propertyPath: ThemeIdSerializedGuid.Array.data[4]
      value: 130
      objectReference: {fileID: 0}
    - target: {fileID: 1668802537024229746, guid: 461e23c5d191ef7429243d914a042dd7,
        type: 3}
      propertyPath: ThemeIdSerializedGuid.Array.data[5]
      value: 32
      objectReference: {fileID: 0}
    - target: {fileID: 1668802537024229746, guid: 461e23c5d191ef7429243d914a042dd7,
        type: 3}
      propertyPath: ThemeIdSerializedGuid.Array.data[6]
      value: 30
      objectReference: {fileID: 0}
    - target: {fileID: 1668802537024229746, guid: 461e23c5d191ef7429243d914a042dd7,
        type: 3}
      propertyPath: ThemeIdSerializedGuid.Array.data[7]
      value: 79
      objectReference: {fileID: 0}
    - target: {fileID: 1668802537024229746, guid: 461e23c5d191ef7429243d914a042dd7,
        type: 3}
      propertyPath: ThemeIdSerializedGuid.Array.data[8]
      value: 152
      objectReference: {fileID: 0}
    - target: {fileID: 1668802537024229746, guid: 461e23c5d191ef7429243d914a042dd7,
        type: 3}
      propertyPath: ThemeIdSerializedGuid.Array.data[9]
      value: 165
      objectReference: {fileID: 0}
    - target: {fileID: 1668802537024229746, guid: 461e23c5d191ef7429243d914a042dd7,
        type: 3}
      propertyPath: ThemeIdSerializedGuid.Array.data[10]
      value: 115
      objectReference: {fileID: 0}
    - target: {fileID: 1668802537024229746, guid: 461e23c5d191ef7429243d914a042dd7,
        type: 3}
      propertyPath: ThemeIdSerializedGuid.Array.data[11]
      value: 167
      objectReference: {fileID: 0}
    - target: {fileID: 1668802537024229746, guid: 461e23c5d191ef7429243d914a042dd7,
        type: 3}
      propertyPath: ThemeIdSerializedGuid.Array.data[12]
      value: 239
      objectReference: {fileID: 0}
    - target: {fileID: 1668802537024229746, guid: 461e23c5d191ef7429243d914a042dd7,
        type: 3}
      propertyPath: ThemeIdSerializedGuid.Array.data[13]
      value: 203
      objectReference: {fileID: 0}
    - target: {fileID: 1668802537024229746, guid: 461e23c5d191ef7429243d914a042dd7,
        type: 3}
      propertyPath: ThemeIdSerializedGuid.Array.data[14]
      value: 71
      objectReference: {fileID: 0}
    - target: {fileID: 1668802537024229746, guid: 461e23c5d191ef7429243d914a042dd7,
        type: 3}
      propertyPath: ThemeIdSerializedGuid.Array.data[15]
      value: 53
      objectReference: {fileID: 0}
    - target: {fileID: 1668802537024229747, guid: 461e23c5d191ef7429243d914a042dd7,
        type: 3}
      propertyPath: m_Color.r
      value: 0.011764706
      objectReference: {fileID: 0}
    - target: {fileID: 1668802537024229747, guid: 461e23c5d191ef7429243d914a042dd7,
        type: 3}
      propertyPath: m_Color.g
      value: 0.7176471
      objectReference: {fileID: 0}
    - target: {fileID: 1668802537024229747, guid: 461e23c5d191ef7429243d914a042dd7,
        type: 3}
      propertyPath: m_Color.b
      value: 0.12156863
      objectReference: {fileID: 0}
    - target: {fileID: 5801619581155093142, guid: 461e23c5d191ef7429243d914a042dd7,
        type: 3}
      propertyPath: m_AnchorMin.y
      value: 0
      objectReference: {fileID: 0}
    - target: {fileID: 5801619581155093142, guid: 461e23c5d191ef7429243d914a042dd7,
        type: 3}
      propertyPath: m_AnchorMax.y
      value: 0
      objectReference: {fileID: 0}
    - target: {fileID: 5801619581155093142, guid: 461e23c5d191ef7429243d914a042dd7,
        type: 3}
      propertyPath: m_AnchoredPosition.x
      value: 0
      objectReference: {fileID: 0}
    - target: {fileID: 5801619581155093142, guid: 461e23c5d191ef7429243d914a042dd7,
        type: 3}
      propertyPath: m_SizeDelta.x
      value: 0
      objectReference: {fileID: 0}
    - target: {fileID: 5801619581155093142, guid: 461e23c5d191ef7429243d914a042dd7,
        type: 3}
      propertyPath: m_SizeDelta.y
      value: 0
      objectReference: {fileID: 0}
    - target: {fileID: 5801619581155093142, guid: 461e23c5d191ef7429243d914a042dd7,
        type: 3}
      propertyPath: m_AnchoredPosition.y
      value: 0
      objectReference: {fileID: 0}
    - target: {fileID: 7680893252305378951, guid: 461e23c5d191ef7429243d914a042dd7,
        type: 3}
      propertyPath: _name
      value: ButtonApply
      objectReference: {fileID: 0}
    - target: {fileID: 8847461635097763118, guid: 461e23c5d191ef7429243d914a042dd7,
        type: 3}
      propertyPath: m_Sprite
      value: 
      objectReference: {fileID: 21300000, guid: 7a0f92d5a4f7b8144a2785455b59bf76,
        type: 3}
    m_RemovedComponents: []
  m_SourcePrefab: {fileID: 100100000, guid: 461e23c5d191ef7429243d914a042dd7, type: 3}
